{
  "type": "service_account",
  "project_id": "ironcap-ba46d",
  "private_key_id": "d5c89ae3df3ed6ba2c26fcab8410eab7651d736f",
  "private_key": "-----BEGIN PRIVATE KEY-----\nMIIEvAIBADANBgkqhkiG9w0BAQEFAASCBKYwggSiAgEAAoIBAQDOcbktIZ1yz4oq\nQZOHeEIiUIpIn+phszrfWOiyqeGU3SvcIFpw0+mr/5x6wKMKuWErsVnPNbLe/+T1\nBPE1DA3w/Mwc+TJtqUEG3J47/+xJeSZzZmYXQSnElEdxge4nj5Y8pM6BC8UEVoQg\nr3ktyVgREh+DhL7IevBglMBmWQpQxX6YLJ4ukQGrAkrRBC63PWBpdBJdrnqHIVR3\nb1bO77ivxVpg1xk453WMPoYlIYHu2lsndioy+2fAzi/LT9CD+/l02jrLRC6NaO9Q\nadNyXEQJdKnjPSiblA8u13fPjd01wYKKSVr6SRdOndejk8t1zGCh2RSX0S3KCr/r\nxDkY/5qFAgMBAAECggEAUgaGjIOQMxd6Lrr6ereSE19L6no7ntEfYbHKV36/Ri4w\nqJhkRvM0I6Z+zpkuzuqETN99LyMHbKphFud9TVX6TherpBFxc3fuAeNzraRMho7v\n86cqhi/agCRoVJXLAgX/rB3RfR2njMcxXWlLLSGUb8fzJIcAZNjQHJfN8HyNaDSw\n/z9GTaOw9yeFJeZAo3JN3rmwxIuFdQo+THoWl2SFTXc2EVTWgdlrjjQxPbaVZZEL\nNgJ0FPAn5ygoah1a3TJmllEtCJE1DY/fY51MUS65f/gaQSnvbnAhNfhKFB5j1CP2\nuAxQRvrggc1NMaKExdBkKdBnKZJ5z7RC0EXlvEQmiwKBgQD5orwPnN3FSoXrW6XO\nctZReCEvX+jaLl0EEUi47qWKV2M4zUVuUuXyk2ZmjZR8Z3gmFGRYXOKSZA8rp0oj\ns3lh+vbMQuy3/6Es4t0Onil8UFJk0MQtppr2z6/Y/iWidEKsg/kysgpuwq9A9lhw\n/RNWqL4xhXpgyWvVBmmugiel4wKBgQDTtRi6rsLi2HOPpuJywLqNQj+0v3L0o5Xa\ncmMMbGc3MsnidGZqrdnHmP9L4zGotLdIsTF8MVaUeSIZcnuDInDePndHrqCAwYhW\nuiDY60+nFOW/I4wrfrFrU5ffbLxcVYVvJVDHR5RjAPRxb8jeqe0rUYvHc3mdQV5T\nh3uurFDqdwKBgB09DkHV4bPF8sGKTnVLxgZsx5ZA6YkEfSiIzbe7W/BEI/73K/as\nBvrOgOPqGUYo6E2tfcNLvc3folc+lNRxpPnw5w8tl4RFkJ8tQy7/H2TME5pzSUb/\niI737GTB/65zZ4vFOV7Ss54dd2FoeRtiyO0RfpVWSOslLFgbFC24WOR5AoGASqm+\nq/AAaVJfBxWbHU9dO35Wy18NoruimOToi7QbfrsZuhTFHfBsMtmBh/j7RX1eenOL\neTpJR5mk7gaTCr91wNuU46HxlxcqBzQja30pnUpgcFWQFLLczXYwxKorkADVS0qE\nv5M+AOCQVQVQeT7ClxluS4wtIsmwA5Nvij3ZV6cCgYBp9jyGYicxSWi2/NAIJqun\nOUqanhws7pYSzl6YpdGFAwWbVJHuS7lQWzugvMCHBhTfizoSeilrsbYeuM/+alzw\nZ4zqzaxBKN36Q78NVseRVGU0CHr3BMHS7CCuN7voqfm3FJIhpq84wqBXd0us2z09\npSA0DDlgzOIFF+KQoVt7wA==\n-----END PRIVATE KEY-----\n",
  "client_email": "firebase-adminsdk-6pqg6@ironcap-ba46d.iam.gserviceaccount.com",
  "client_id": "113335258139348984152",
  "auth_uri": "https://accounts.google.com/o/oauth2/auth",
  "token_uri": "https://oauth2.googleapis.com/token",
  "auth_provider_x509_cert_url": "https://www.googleapis.com/oauth2/v1/certs",
  "client_x509_cert_url": "https://www.googleapis.com/robot/v1/metadata/x509/firebase-adminsdk-6pqg6%40ironcap-ba46d.iam.gserviceaccount.com"
}
